<?xml version="1.0" encoding="utf-8"?>
<!-- Generator: Adobe Illustrator 23.0.1, SVG Export Plug-In . SVG Version: 6.00 Build 0)  -->
<svg version="1.1" id="Capa_1" xmlns="http://www.w3.org/2000/svg" xmlns:xlink="http://www.w3.org/1999/xlink" x="0px" y="0px"
	 viewBox="0 0 123 110" style="enable-background:new 0 0 123 110;" xml:space="preserve">
<style type="text/css">
	.st0{fill:#8FA3B0;}
</style>
<g>
	<path class="st0" d="M95.8,60.6c-3.5,0-5.9,2.3-5.9,5.8c0,1.8,0.5,3.2,1.5,4.3c0.9,1,2.2,1.6,3.6,1.6c1.5,0,2.6-0.3,4.2-1.1V72h2
		V61.8C101,61.7,98.7,60.6,95.8,60.6 M99.2,69.1c-1.5,0.9-2.8,1.3-3.9,1.3c-1.1,0-1.9-0.4-2.5-1.1c-0.6-0.7-0.9-1.8-0.9-3
		c0-3.3,2.2-4.1,3.9-4.1s2.9,0.6,3.2,0.7L99.2,69.1L99.2,69.1z"/>
	<path class="st0" d="M43,63.5c-3.4-0.7-4.1-1.5-4.1-2.8c0-1.4,1.3-2.3,3.1-2.3c1.6,0,3,0.5,4.5,1.7l1.2-1.5c-1.7-1.4-3.4-2-5.6-2
		c-3,0-5.2,1.8-5.2,4.1c0,1.3,0.4,2.2,1.3,2.9c0.8,0.7,2.1,1.2,4,1.6c3.3,0.7,3.9,1.4,3.9,2.7c0,1.5-1.4,2.4-3.3,2.4
		s-3.6-0.6-5.3-2.2l-1.3,1.5c2,1.7,4,2.5,6.5,2.5c1.6,0,2.9-0.4,3.8-1.2s1.6-1.9,1.6-3.1C48.1,65.6,46.6,64.3,43,63.5"/>
	<rect x="50.5" y="57.8" class="st0" width="2" height="1.9"/>
	<rect x="50.5" y="60.8" class="st0" width="2" height="11.2"/>
	<path class="st0" d="M69,60.6c-3.9,0-6.1,2.6-6.1,5.8c0,3.2,2.2,5.8,6.1,5.8s6.1-2.6,6.1-5.8C75.1,63.1,73,60.6,69,60.6 M69,70.5
		c-2.9,0-4-1.8-4-4.1c0-2.3,1.3-4.1,4-4.1c2.9,0,4,1.8,4,4.1C73.1,68.7,71.9,70.5,69,70.5"/>
	<path class="st0" d="M47.6,39.9c-1.5-1.4-3.6-2.2-6-2.2H37v14.4c0.1,0,2.6,0.8,4.6,0.8c2.2,0,4.3-0.9,6-2.4
		c1.5-1.4,2.4-3.2,2.4-5.3C50,43.3,49.2,41.3,47.6,39.9 M41.6,51.2c-1.2,0-2.3-0.2-2.7-0.3V39.6h2.7c3.7,0,6.3,2.4,6.3,5.7
		S45.1,51.2,41.6,51.2"/>
	<path class="st0" d="M73.5,42.7c-0.8-0.8-2-1.3-3.3-1.3c-3.4,0-5.7,1.2-5.8,1.3v10.1h2v-8.9c1-0.5,2.1-0.7,3.3-0.7
		c1,0,1.7,0.3,2.3,0.9c0.5,0.6,0.8,1.4,0.8,2.4v6.5h2V46C74.7,44.5,74.3,43.5,73.5,42.7"/>
	<path class="st0" d="M103.7,43c-1-1-2.5-1.5-4.2-1.5c-2.9,0-5.1,1.1-5.4,1.3v13.5h2v-3.9c1.5,0.6,2.5,0.8,3.9,0.8
		c3.2,0,5.3-2.3,5.3-5.8C105.3,45.4,104.7,43.9,103.7,43 M99.9,51.3c-1.3,0-2.4-0.2-3.9-1v-6.5c0.3-0.2,1.5-0.7,3.2-0.7
		c2.7,0,3.9,1.4,3.9,4.1C103.2,49.8,102,51.3,99.9,51.3"/>
	<rect x="107.1" y="38.3" class="st0" width="2" height="14.4"/>
	<path class="st0" d="M120.5,41.6l-3.6,8.8l-4-8.8h-2.2l5.3,11l0,0c-0.6,1.4-1.2,1.9-2.2,1.9c-0.7,0-1.2-0.1-1.9-0.5l-0.7,1.6
		c1,0.5,1.7,0.6,2.7,0.6c1.9,0,2.9-0.9,3.9-3.1l4.9-11.4C122.8,41.6,120.5,41.6,120.5,41.6z"/>
	<path class="st0" d="M77.4,38.3v11.5c0,1.1,0.3,2,0.9,2.5c0.6,0.5,1.3,0.6,1.8,0.6c0.6,0,1.2-0.1,1.8-0.4l-0.6-1.6
		c-0.3,0.1-0.5,0.2-0.8,0.2c-0.5,0-1.2,0-1.2-1.6v-6.2h2v-1.8h-2v-3.2H77.4z"/>
	<path class="st0" d="M59.6,60.6c-2.5,0-3.9,1-4,1.1V72h2v-9.1c0.6-0.4,1.3-0.6,2-0.6c1.2,0,2,0.4,2.7,0.8l0.9-1.6
		C62,60.9,61.1,60.6,59.6,60.6"/>
	<path class="st0" d="M62.5,48.1h-9c0.4,2,1.8,3.2,3.8,3.2c1.4,0,2.6-0.5,3.6-1.6l1.3,1.1c-1.4,1.6-2.9,2.2-4.9,2.2
		c-2.7,0-5.9-1.8-5.9-5.8c0-3.2,1.7-5.8,5.5-5.8c3.9,0,5.6,2.6,5.6,5.9C62.6,47.5,62.5,47.9,62.5,48.1 M53.5,46.4h7
		c-0.2-1.9-1.1-3.2-3.5-3.2C54.6,43.2,53.7,44.5,53.5,46.4"/>
	<path class="st0" d="M86.4,61.8c-0.8-0.8-2-1.3-3.3-1.3c-3.4,0-5.7,1.2-5.8,1.3V72h2V63c1-0.5,2.1-0.7,3.3-0.7c1,0,1.7,0.3,2.3,0.9
		c0.5,0.6,0.8,1.4,0.8,2.4v6.5h2v-6.9C87.6,63.7,87.2,62.6,86.4,61.8"/>
	<path class="st0" d="M88.4,46.3c-1.5-0.4-2.8-0.8-2.8-1.8c0-0.9,0.9-1.5,2.1-1.5c1.1,0,2.4,0.4,3.4,1.1l0.9-1.5
		c-1.2-0.8-2.9-1.3-4.3-1.3c-2.4,0-4,1.3-4,3.3c0,2.2,2.3,2.8,3.9,3.2c1.5,0.4,2.8,0.8,2.8,1.9c0,1-0.9,1.6-2.3,1.6
		c-1.3,0-2.8-0.5-4-1.5l-1,1.4c1.4,1.1,3.2,1.7,4.9,1.7c1.2,0,2.3-0.3,2.9-0.9c0.8-0.6,1.3-1.5,1.3-2.6
		C92.1,47.4,89.9,46.7,88.4,46.3"/>
	<path class="st0" d="M8,37.8c0.1,0-7.8,0-7.8,0v2.6c0,6.1,1.8,8.8,12.1,11.3c7.2,1.5,12,3.3,13.7,8c0.4-1.6,0.7-2.8,0.7-5
		C26.8,44.7,19,37.8,8,37.8"/>
	<path class="st0" d="M21.7,65.1c0-3.7-2-5.2-11.2-7.3c-5.7-1.3-8.1-2.7-10.3-3.9v15.3c3.1,1.9,7.6,3,9.9,3
		C17.9,72.2,21.7,68.8,21.7,65.1"/>
</g>
</svg>
